<?xml version="1.0" standalone="no"?>
<!DOCTYPE svg PUBLIC "-//W3C//DTD SVG 1.1//EN" "http://www.w3.org/Graphics/SVG/1.1/DTD/svg11.dtd" >
<!--
2019-1-15: Created.
-->
<svg xmlns="http://www.w3.org/2000/svg">
<metadata>
Created by FontForge 20120731 at Tue Jan 15 09:16:07 2019
 By Apache
Created by Apache with FontForge 2.0 (http://fontforge.sf.net)
</metadata>
<defs>
<font id="Flaticon" horiz-adv-x="512" >
  <font-face 
    font-family="Flaticon"
    font-weight="500"
    font-stretch="normal"
    units-per-em="512"
    panose-1="2 0 6 3 0 0 0 0 0 0"
    ascent="448"
    descent="-64"
    bbox="-87.6523 -64 512.341 448"
    underline-thickness="25.6"
    underline-position="-51.2"
    unicode-range="U+0020-F105"
  />
    <missing-glyph />
    <glyph glyph-name="space" unicode=" " horiz-adv-x="200" 
 />
    <glyph glyph-name="uniF103" unicode="&#xf103;" 
d="M488.399 -44c5.52246 0 10 -4.47656 10 -10s-4.47754 -10 -10 -10h-464.799c-5.52246 0 -10 4.47656 -10 10s4.47754 10 10 10h23.1162v90.2041c0 14.8223 12.0596 26.8818 26.8818 26.8818h49.0254c14.8223 0 26.8818 -12.0586 26.8818 -26.8818v-90.2041h55.6924
v174.175c0 14.8223 12.0586 26.8818 26.8818 26.8818h49.0244c14.8223 0 26.8818 -12.0586 26.8818 -26.8818v-174.175h55.6914v318.464c0 14.8223 12.0596 26.8818 26.8818 26.8818h49.0244c14.8223 0 26.8818 -12.0586 26.8818 -26.8818v-318.464h21.9336zM129.504 -44
v90.2041c0 3.79492 -3.08691 6.88184 -6.88184 6.88184h-49.0244c-3.79492 0 -6.88184 -3.08691 -6.88184 -6.88184v-90.2041h62.7881zM287.985 -44v174.175c0 3.79492 -3.08789 6.88184 -6.88281 6.88184h-49.0234c-3.79492 0 -6.88184 -3.08691 -6.88184 -6.88184
v-174.175h62.7881zM446.466 -44v318.464c0 3.79492 -3.08691 6.88184 -6.88184 6.88184h-49.0244c-3.79492 0 -6.88184 -3.08691 -6.88184 -6.88184v-318.464h62.7881zM466.442 437.484c0.00683594 -0.162109 0.0234375 -0.321289 0.0234375 -0.484375v-56.9531
c0 -5.52246 -4.47656 -10 -10 -10c-5.52246 0 -10 4.47754 -10 10v33.8105l-105.928 -105.928c-3.90625 -3.9043 -10.2383 -3.9043 -14.1436 0l-37.2793 37.2803l-172.698 -172.699c-1.95215 -1.95312 -4.51172 -2.92871 -7.07129 -2.92871
c-2.55859 0 -5.11816 0.975586 -7.07031 2.92676c-3.90527 3.90625 -3.90527 10.2383 0 14.1436l179.769 179.77c1.875 1.875 4.41895 2.92871 7.07129 2.92871c2.65137 0 5.19531 -1.05371 7.07031 -2.92871l37.2803 -37.2803l98.8574 98.8584h-37.3574
c-5.52246 0 -10 4.47656 -10 10s4.47754 10 10 10h60.5c0.164062 0 0.323242 -0.0166016 0.484375 -0.0244141c2.72852 0.141602 5.50391 -0.819336 7.58789 -2.90332s3.04395 -4.85938 2.9043 -7.58789zM65.6396 144.69c0 6.66667 3.33334 10 10 10s10 -3.33333 10 -10
s-3.33334 -10 -10 -10s-10 3.33333 -10 10z" />
    <glyph glyph-name="uniF104" unicode="&#xf104;" 
d="M404.267 132.59c7.08203 -14.6992 3.71191 -30.9971 -8.53418 -41.4707c-7.23242 -6.20801 -15.9785 -9.21582 -24.4697 -8.76758c-3.07129 -7.70215 -9.25781 -14.2949 -17.8125 -18.6035c-8.74609 -4.39355 -18.3682 -5.65332 -26.7734 -3.86133
c-4.52246 -9.17285 -12.501 -16.7461 -22.208 -20.501c-8.21289 -3.19922 -16.7471 -3.17871 -24.2559 -0.255859c-5.60938 -4.71387 -13.6963 -7.125 -24.2129 -7.125c-13.0986 0 -30.0156 7.25293 -37.8672 12.416c-9.51367 6.25 -57.2578 42.1543 -96.9805 75.4131
c-6.61426 5.54688 -16.4482 15.8301 -25.9629 25.7715c-7.06152 7.35938 -13.4609 14.1211 -16.7686 16.917c-4.50195 3.79688 -5.05566 10.5381 -1.25879 15.04c3.77637 4.52246 10.4961 5.09863 15.04 1.25879c3.62695 -3.07227 10.6875 -10.3896 18.4111 -18.4531
c8.7041 -9.08789 18.5596 -19.3711 24.2559 -24.1709c40.5537 -33.9629 87.5088 -68.9922 94.9971 -73.9199c6.25 -4.13965 19.0283 -8.93945 26.1328 -8.93945c9.98438 0 10.9023 2.56055 11.3066 3.62695c1.2168 3.34961 4.01172 5.86719 7.48828 6.7207
c3.43457 0.831055 7.10449 -0.0869141 9.74902 -2.47559c4.24512 -3.88281 8.98145 -3.13574 12.2451 -1.89844c6.7627 2.62402 11.9473 9.34375 12.5869 16.3408c0.383789 4.05273 3.03027 7.55176 6.82715 8.98047c3.79688 1.4082 8.08496 0.597656 11.0723 -2.17578
c2.66699 -2.47461 9.79199 -3.07227 16.6182 0.383789c2.68848 1.34473 8.89648 5.22754 8.17188 12.0107c-0.448242 4.13965 1.55664 8.17188 5.14062 10.3047c3.5625 2.13281 8.06348 1.9834 11.5195 -0.383789c3.13672 -2.19824 8.91699 -1.04688 13.1416 2.58105
c2.87988 2.45215 7.12598 7.80762 3.17871 16.0205c-8 16.6396 -43.5625 45.3984 -74.9229 70.7627c-17.3438 14.0166 -33.8135 27.3496 -46.0166 38.8057c-3.11426 -1.25977 -5.46191 -2.30469 -7.4668 -3.2002c-5.5459 -2.49609 -9.23633 -4.03223 -16.0205 -5.07715
c-16.4268 -21.8018 -38.4854 -29.4404 -62.6562 -21.4609c-9.6416 3.17773 -16.1279 10.0049 -18.3252 19.2207c-5.12012 21.6543 14.6992 51.1787 29.291 65.7715c38.3359 38.3574 65.1738 52.7578 114.091 30.8906c41.9844 -18.7949 84.0537 -33.4941 84.4805 -33.6426
c5.56836 -1.94141 8.49121 -8.02148 6.57129 -13.5889c-1.94141 -5.56836 -7.97852 -8.5127 -13.5889 -6.57129c-0.427734 0.148438 -43.3506 15.1465 -86.1875 34.3037c-37.7598 16.875 -55.6367 8.19238 -90.3037 -26.4961
c-14.5703 -14.5703 -25.8135 -36.374 -23.5732 -45.7393c0.320312 -1.36426 0.916992 -2.79492 4.24512 -3.90332c10.4316 -3.49805 26.0479 -5.41797 41.1309 17.1309c1.77148 2.64453 4.62891 4.35156 7.80762 4.67188c7.19043 0.724609 8.98242 1.53613 14.3154 3.9248
c3.49805 1.55762 7.93555 3.5625 15.125 6.16504c3.86133 1.38672 8.23438 0.448242 11.1572 -2.49609c11.6689 -11.6689 29.9727 -26.4736 49.3438 -42.1328c34.7305 -28.0957 70.6768 -57.1738 80.7246 -78.123zM213.333 309.337c5.8877 0 10.667 -4.7793 10.667 -10.667
s-4.7793 -10.667 -10.667 -10.667h-96c-5.8877 0 -10.667 4.7793 -10.667 10.667s4.7793 10.667 10.667 10.667h96zM435.52 155.289c3.28516 -4.88574 1.98438 -11.5205 -2.89941 -14.8057l-31.1895 -20.9492c-1.83496 -1.2373 -3.90332 -1.81348 -5.93066 -1.81348
c-3.43457 0 -6.80566 1.66406 -8.875 4.71484c-3.28613 4.88574 -1.98438 11.5205 2.90137 14.8057l31.1885 20.9492c4.88477 3.32715 11.498 1.9834 14.8047 -2.90137zM369.301 104.387c4.62988 -3.64746 5.41895 -10.3682 1.77051 -14.9766
c-2.13281 -2.66699 -5.26953 -4.0752 -8.40527 -4.0752c-2.30371 0 -4.65137 0.74707 -6.5918 2.2832c-11.2432 8.875 -59.6055 59.2861 -65.0879 65.0029c-4.0752 4.24609 -3.94727 11.0078 0.319336 15.083c4.24609 4.0957 11.0088 3.94727 15.083 -0.320312
c21.1201 -22.0156 55.2754 -56.9805 62.9121 -62.9971zM326.677 82.9902c4.58691 -3.66895 5.33398 -10.3896 1.66309 -14.998c-2.1123 -2.60254 -5.22559 -3.98926 -8.34082 -3.98926c-2.3252 0 -4.69336 0.768555 -6.65625 2.3252
c-15.8291 12.6719 -54.1436 54.0381 -54.5273 54.4434c-3.98926 4.33008 -3.69141 11.0938 0.639648 15.082c4.35156 3.96875 11.0723 3.71289 15.083 -0.639648c7.25391 -7.89258 39.3604 -42.0049 52.1387 -52.2236zM284.224 61.5068
c4.50098 -3.79688 5.07715 -10.5166 1.28027 -15.04c-2.1123 -2.49609 -5.1416 -3.79688 -8.1709 -3.79688c-2.43164 0 -4.86426 0.832031 -6.86914 2.5166c-15.7227 13.2695 -45.5039 44.8438 -54.251 54.208c-4.01074 4.31055 -3.79688 11.0518 0.511719 15.083
c4.28809 4.03223 11.0518 3.79785 15.083 -0.511719c6.08008 -6.50684 37.2051 -39.6377 52.416 -52.459zM124.672 327.747c2.36816 -2.21777 3.56348 -5.41797 3.28516 -8.66113c-4.8418 -55.4668 -41.5996 -168.277 -43.1572 -173.056
c-1.42871 -4.39551 -5.52441 -7.36035 -10.1328 -7.36035h-64c-5.8877 0 -10.667 4.7793 -10.667 10.667v192c0 2.94434 1.21582 5.75977 3.34961 7.76465c2.13379 2.02734 4.92871 3.0293 7.95703 2.88086c21.9736 -1.30176 95.082 -6.91211 113.365 -24.2354z
M66.8799 160.003c7.93652 25.0459 33.5146 108.054 39.168 154.774c-13.4395 6.52734 -50.4316 12.416 -84.7148 15.125v-169.899h45.5469zM501.333 330.67c5.8877 0 10.667 -4.75684 10.667 -10.666v-192c0 -5.8877 -4.7793 -10.667 -10.667 -10.667h-64
c-4.7998 0 -9.00293 3.2002 -10.2832 7.8291c-7.93555 28.7568 -49.2158 146.645 -62.3994 167.872c-1.60059 2.60156 -2.02637 5.73828 -1.17383 8.66113c0.853516 2.92285 2.92383 5.33398 5.69629 6.63477c1.94141 0.896484 48.4053 22.3359 132.16 22.3359z
M490.667 138.67v170.538c-50.752 -1.19434 -85.7178 -10.6885 -101.995 -16.2129c16.6611 -35.498 46.5283 -121.386 56.6396 -154.325h45.3555z" />
    <glyph glyph-name="uniF100" unicode="&#xf100;" 
d="M235.793 100.734c-3.90625 -3.89844 -10.2344 -3.89844 -14.1445 0c-3.89844 3.91016 -3.89844 10.2383 0 14.1484c3.91016 3.89844 10.2383 3.89844 14.1445 0c3.90234 -3.91016 3.90234 -10.2383 0 -14.1484zM235.793 100.734zM188.449 338.031
c0 60.6367 49.332 109.969 109.969 109.969s109.969 -49.332 109.969 -109.969s-49.332 -109.973 -109.969 -109.973s-109.969 49.3359 -109.969 109.973zM388.395 338.031c0 49.6094 -40.3633 89.9727 -89.9766 89.9727s-89.9766 -40.3633 -89.9766 -89.9727
c0 -49.6133 40.3633 -89.9766 89.9766 -89.9766s89.9766 40.3633 89.9766 89.9766zM388.395 338.031zM115.652 -61.043l-112.25 113.105c-3.875 3.90625 -3.86719 10.207 0.015625 14.1016l47.5586 47.6992c7.21094 7.21094 17.2344 10.0859 26.7383 8.28516
c22.5586 41.6875 64.5938 63.9219 112.734 63.9219c17.3672 0 34.1992 -3.35938 50.0625 -9.99609h111.48c12.2734 0 23.6328 -5.71484 31.082 -14.8828l58.9922 60.6328c14.2695 16.5469 39.3555 18.5742 56.1016 4.46094c16.8516 -14.2461 18.9805 -39.5273 4.75 -56.3633
c-95.9453 -114.672 -89.9727 -107.637 -90.668 -108.312c-16.8945 -16.4414 -39.1797 -25.4961 -62.7578 -25.4961h-132.902c-7.8125 0 -15.2031 -2.98828 -20.8164 -8.41016l-10.4258 -10.0547c3.62109 -10.5977 1.11719 -22.7891 -7.11719 -31.0234l-48.4688 -47.75
c-3.92578 -3.86719 -10.2344 -3.82422 -14.1094 0.0820312zM78.1953 279.184c15.3125 0 30.1172 -3.08203 44.0117 -9.16016c1.26562 -0.554688 2.62891 -0.839844 4.00781 -0.839844h113.527c10.8398 0 19.9961 -8.83984 19.9961 -19.9922
c0 -11.0273 -8.96875 -19.9961 -19.9961 -19.9961h-81.5664c-5.51953 0 -9.99609 -4.47656 -9.99609 -9.99609c0 -5.52344 4.47656 -9.99609 9.99609 -9.99609h81.5664c22.0508 0 39.9883 17.9375 39.9883 39.9883c0 1.75781 -0.125 3.5 -0.351562 5.22656
c57.0664 58.6602 65.1133 66.9023 65.457 67.3125c7.125 8.41016 19.7734 9.47656 28.1875 2.38281c8.42188 -7.12109 9.48828 -19.7617 2.34375 -28.2188l-89.668 -107.195c-13.0938 -12.5703 -30.2852 -19.4883 -48.457 -19.4883h-132.902
c-13.0234 0 -25.3516 -4.98047 -34.7031 -14.0156l-8.49609 -8.19922l-78.3203 78.3164c18.3047 34.3398 52.6523 53.8711 95.375 53.8711zM-47.125 212.84c3.29688 3.29688 8.35938 3.89062 12.3789 1.40625c1.73047 -1.05469 -3.23828 3.46875 86.5898 -86.2344
c3.99609 -3.99609 3.78125 -10.3633 0.0546875 -14.0898l-41.3203 -40.707l-98.2305 98.9805zM-87.6523 172.195zM286.422 398.012c0 5.52344 4.47656 10 9.99609 10s9.99609 -4.47656 9.99609 -10v-11.6445c4.57031 -1.51562 9.64844 -4.29297 14.7227 -9.20312
c3.96484 -3.83984 4.07031 -10.168 0.230469 -14.1367c-3.83984 -3.96484 -10.168 -4.07031 -14.1367 -0.230469c-3.53125 3.41797 -7.26953 5.22656 -10.8125 5.22656c-5.51172 0 -9.99609 -4.48828 -9.99609 -10s4.48438 -9.99609 9.99609 -9.99609
c16.5391 0 29.9922 -13.4531 29.9922 -29.9922c0 -13.0312 -8.35938 -24.1445 -19.9961 -28.2734v-11.7148c0 -5.52344 -4.47656 -9.99609 -9.99609 -9.99609s-9.99609 4.47266 -9.99609 9.99609v11.668c-6.66016 2.23438 -12.9453 6.66406 -18.2891 13.0195
c-3.55469 4.22656 -3.00781 10.5312 1.21875 14.0859c4.22656 3.55078 10.5312 3.00781 14.0859 -1.21875c4.09766 -4.87891 8.71094 -7.5625 12.9805 -7.5625c5.51172 0 9.99609 4.48438 9.99609 9.99609s-4.48438 9.99609 -9.99609 9.99609
c-16.5391 0 -29.9922 13.457 -29.9922 29.9922c0 13.0352 8.35938 24.1484 19.9961 28.2734v11.7148zM286.422 398.012z" />
    <glyph glyph-name="uniF105" unicode="&#xf105;" 
d="M498.791 286.873c17.5898 -17.5879 17.5859 -46.0537 -0.000976562 -63.6396l-108.772 -108.864v-133.369c0 -24.8125 -20.1865 -45 -45 -45h-300c-24.8125 0 -45 20.1875 -45 45v422c0 24.8125 20.1875 45 45 45h257.574c12.0205 0 23.3213 -4.67969 31.8203 -13.1797
l42.4248 -42.4277c8.5 -8.49902 13.1807 -19.7988 13.1807 -31.8184v-118.871c5.26562 5.26953 39.7305 39.7627 45.1289 45.166c17.5508 17.5488 46.0996 17.5498 63.6445 0.00390625zM300.019 418v-60h60c0 3.20215 0.366211 8.41895 -4.39355 13.1797l-42.4258 42.4277
c-4.88477 4.88379 -10.3457 4.39258 -13.1807 4.39258zM360.018 -19v103.36l-1.81934 -1.82031c-1.64648 -1.64746 -3.6543 -2.8877 -5.86328 -3.62402l-63.6396 -21.2129c-5.38281 -1.79492 -11.3271 -0.399414 -15.3506 3.62402
c-4.01758 4.0166 -5.4209 9.95996 -3.62402 15.3496l21.2139 63.6406c0.736328 2.20898 1.97852 4.2168 3.62402 5.8623l21.2031 21.2041l44.2559 44.293v116.323h-75c-8.2832 0 -15 6.71582 -15 15v75h-225c-8.27051 0 -15 -6.72852 -15 -15v-422
c0 -8.27148 6.72949 -15 15 -15h300c8.27246 0 15 6.72852 15 15zM326.378 135.573l-8.10254 -8.10254l-10.6064 -31.8193l31.8193 10.6055l8.10254 8.10352zM368.8 135.578l72.1055 72.166l-21.2129 21.2129c-10.6406 -10.6494 -60.8096 -60.8613 -72.1055 -72.166z
M477.573 244.442c5.88379 5.88477 5.85254 15.3672 0.00585938 21.2178c-5.84863 5.84766 -15.3623 5.84863 -21.2139 0l-15.4688 -15.4814l21.2139 -21.2129zM285.018 298c8.28418 0 15 -6.71582 15 -15s-6.71582 -15 -15 -15h-210c-8.2832 0 -15 6.71582 -15 15
s6.7168 15 15 15h210zM225.018 238c8.28418 0 15 -6.71582 15 -15s-6.71582 -15 -15 -15h-150c-8.2832 0 -15 6.71582 -15 15s6.7168 15 15 15h150zM225.018 178c8.28418 0 15 -6.71582 15 -15s-6.71582 -15 -15 -15h-150c-8.2832 0 -15 6.71582 -15 15s6.7168 15 15 15h150
zM225.018 118c8.28418 0 15 -6.71582 15 -15s-6.71582 -15 -15 -15h-150c-8.2832 0 -15 6.71582 -15 15s6.7168 15 15 15h150zM285.018 26c8.28418 0 15 -6.71582 15 -15s-6.71582 -15 -15 -15h-90c-8.2832 0 -15 6.71582 -15 15s6.7168 15 15 15h90z" />
    <glyph glyph-name="uniF102" unicode="&#xf102;" 
d="M273.244 126.643c24.6953 0 44.8135 -20.1182 44.8135 -44.8135c0 -24.4814 -19.6924 -44.4932 -44.1748 -44.8125h-0.319336h-2.12891v-18.2021c0 -7.02539 -5.74805 -12.7734 -12.7734 -12.7734s-12.7734 5.74805 -12.7734 12.7734v18.2021h-25.1211
c-7.02539 0 -12.7734 5.74805 -12.7734 12.7734s5.74805 12.7725 12.7734 12.7725h52.4775c10.6445 0 19.2666 8.62207 19.2666 19.2666s-8.62207 19.2666 -19.2666 19.2666h-29.2725c-24.6953 0 -44.8135 20.1182 -44.8135 44.8135s20.1182 44.8135 44.8135 44.8135
h1.80957v17.7764c0 7.02539 5.74805 12.7734 12.7734 12.7734s12.7734 -5.74805 12.7734 -12.7734v-17.7764h24.1631c7.02539 0 12.7734 -5.74805 12.7734 -12.7734s-5.74805 -12.7734 -12.7734 -12.7734h-51.5195c-10.6445 0 -19.2666 -8.62207 -19.2666 -19.2666
s8.62207 -19.2666 19.2666 -19.2666h29.2725zM450.581 155.596c16.8184 -38.8525 25.334 -79.4082 25.334 -120.495c0 -54.6064 -44.4941 -99.1006 -99.0996 -99.1006h-241.631c-54.6055 0 -99.0996 44.4941 -99.0996 99.1006c0 41.0869 8.51562 81.6426 25.334 120.495
c13.4121 30.8691 32.04 60.7803 55.3516 88.7754c27.7812 33.3174 55.457 55.8838 69.9336 66.6348l-58.5439 88.4551c-3.2998 5.00293 -2.66113 11.709 1.49023 15.9668c19.9043 20.4375 40.2354 30.0176 64.0791 30.0176c18.8408 0 38.3203 -5.74805 63.6543 -15.0088
c1.91602 -0.745117 3.83203 -1.06445 6.06738 -1.06445c7.34473 0 16.3926 3.83203 25.9727 7.77051c12.1348 5.10938 26.0791 10.8574 41.3008 10.8574c16.6055 0 31.5078 -6.70605 45.5586 -20.4375c4.15039 -3.93848 5.00195 -10.1123 2.3418 -15.1152l-54.2871 -100.697
c14.3701 -10.5371 42.5781 -33.3164 70.8916 -67.3789c23.418 -27.9951 41.9395 -57.9062 55.3516 -88.7754zM155.409 404.783l55.6709 -84.0918h88.9883l51.0938 94.9492c-8.72852 6.17383 -15.6475 7.02539 -20.5439 7.02539
c-10.1123 0 -20.5439 -4.36426 -31.5078 -8.94141c-11.3896 -4.79004 -23.3115 -9.68652 -35.7656 -9.68652c-5.10938 0 -10.1123 0.851562 -14.7959 2.55469c-22.6729 8.40918 -39.7041 13.5186 -54.8193 13.5186c-14.1572 0 -25.9727 -4.68359 -38.3203 -15.3281z
M376.815 -38.4531c40.5547 0 73.5527 32.998 73.3398 73.5537c0 68.3369 -24.9082 132.949 -74.1924 192.346c-31.0811 37.5752 -62.5889 60.9932 -72.2754 67.6992h-95.5879c-9.58008 -6.8125 -41.1943 -30.124 -72.2764 -67.6992
c-49.1768 -59.3965 -74.1914 -124.115 -74.1914 -192.346c0 -40.5557 32.998 -73.5537 73.5527 -73.5537h241.631z" />
    <glyph glyph-name="uniF101" unicode="&#xf101;" 
d="M425.502 406.924c39.1201 0 70.5137 -30.9102 70.5137 -70.0312s-31.876 -70.5146 -70.5137 -70.5146c-38.6387 0 -70.0322 30.9111 -70.0322 70.0322c0 39.1201 30.9111 70.5137 70.0322 70.5137zM425.502 281.833c30.4268 0 55.0586 24.1494 55.0586 54.5771
c0 30.4268 -24.6318 55.0586 -55.0586 55.0586c-29.9453 0 -55.0596 -24.1484 -55.0596 -54.5762s24.6318 -55.0596 55.0596 -55.0596zM447.719 325.784c0.482422 -1.44922 0.482422 -2.41504 0.482422 -3.86328c0 -1.93262 0 -3.38086 -0.482422 -4.83008
l-1.44922 -4.34668c-0.96582 -1.44922 -1.44922 -2.89844 -2.41504 -3.86426c-0.96582 -1.44824 -1.93164 -2.41504 -2.89746 -3.38086c-1.44922 -0.96582 -2.41504 -1.93164 -3.86426 -2.41504c-1.44922 -0.96582 -2.89746 -1.44824 -4.34668 -1.93164h-0.483398v-7.72754
v-2.41504h-2.41406h-6.76172h-2.41504v2.41504v7.24512h-0.96582c-1.44922 0 -2.41504 0 -3.86426 0.482422c-1.44922 0.483398 -2.89746 0.483398 -3.86328 0.96582c-0.966797 0 -2.41504 0.483398 -3.38086 0.96582
c-1.44922 0.483398 -2.41504 0.966797 -4.34668 0.483398l-1.44922 0.483398v1.44824l0.96582 8.69336l0.483398 3.38086l2.89746 -1.44824c0.482422 0 0.96582 -0.483398 1.44922 -0.483398c0.482422 0 0.96582 -0.482422 1.44824 -0.482422
c0.96582 -0.483398 1.93262 -0.483398 2.89844 -0.966797c0.96582 -0.482422 1.93164 -0.96582 2.89746 -0.96582c0.483398 0 1.44922 -0.482422 2.41504 -0.482422h2.41504h1.93164h1.93164c0.96582 0 1.93262 0.482422 2.41504 0.482422
c0.483398 0.483398 1.44922 0.483398 1.93164 0.96582c0.966797 0.483398 1.44922 0.966797 1.93262 1.44922c0.482422 0.483398 0.96582 0.96582 1.44824 1.44922c0.483398 0.482422 0.966797 1.44922 0.966797 1.93164v2.41504s-0.483398 1.93164 -0.483398 2.41504
c-0.483398 0.96582 -0.483398 1.44824 -0.96582 1.93164l-1.44922 1.44922c-0.482422 0 -0.96582 0.482422 -1.44922 0.96582c-0.482422 0.482422 -1.44824 0.482422 -1.93164 0.96582c-0.482422 0.483398 -1.44922 0.96582 -1.93164 0.96582
c-0.96582 0.483398 -2.41504 0.96582 -3.86426 1.44922c-0.96582 0.482422 -2.41406 1.44922 -3.86328 1.93164c-0.96582 0.483398 -2.41504 0.96582 -3.38086 1.93164c-1.44922 0.483398 -2.41504 1.44922 -3.38086 2.41504s-1.44922 1.93262 -2.41504 2.89844
c-0.483398 0.96582 -1.44922 2.41406 -1.93164 3.38086c-0.96582 1.44824 -0.96582 2.41406 -1.44922 3.86328c-0.482422 1.44922 -0.482422 2.41504 -0.482422 3.86426c0 1.44824 0 3.38086 0.482422 4.8291c0.483398 1.44922 0.96582 2.89844 1.44922 4.34668
c0.482422 1.44922 0.96582 2.89844 1.93164 3.86426c0.96582 1.44922 1.93164 2.41504 2.89746 3.38086c0.966797 0.96582 1.93262 1.93164 3.38086 2.41504c1.44922 0.96582 2.89844 1.44922 4.34766 1.93164h0.482422v7.24512v2.41406h2.41504h6.76172h2.41504v-2.41406
v-6.76172h0.482422c0.96582 0 1.44922 -0.483398 2.41504 -0.483398s1.93164 -0.482422 2.41504 -0.482422c0.96582 0 1.44922 -0.483398 1.93164 -0.483398c0.483398 0 1.44922 -0.483398 1.93164 -0.483398l1.93262 -0.482422v-1.93164l-0.96582 -7.72852
l-0.483398 -2.89746l-2.41504 0.96582c-0.482422 0 -0.96582 0.483398 -1.93164 0.483398c-0.483398 0 -1.44922 0.482422 -1.93164 0.482422c-0.483398 0 -1.44922 0.483398 -2.41504 0.483398c-0.96582 0.482422 -1.44922 0.482422 -2.41504 0.482422h-1.44922h-1.44824
c-0.966797 0 -1.44922 0 -2.41504 -0.482422c-0.96582 0 -1.93262 -0.483398 -2.41504 -0.96582l-1.44922 -1.44922c-0.482422 -0.483398 -0.482422 -1.44922 -0.96582 -1.93164c0 -0.483398 -0.482422 -1.44922 -0.482422 -1.93262v-2.41406
c0 -0.483398 0 -1.44922 0.482422 -1.93262c0 -0.96582 0.483398 -1.44824 0.96582 -1.93164c0.483398 -0.482422 0.96582 -0.96582 1.44922 -1.44922c0.482422 -0.482422 1.44922 -0.482422 1.93164 -0.96582c0.483398 -0.482422 1.44922 -0.482422 1.93164 -0.96582
c0.483398 -0.482422 1.44922 -0.96582 1.93262 -0.96582c0.96582 -0.483398 2.41504 -0.96582 3.86328 -1.44922c1.44922 -0.482422 2.41504 -1.44824 3.86426 -1.93164c0.96582 -0.482422 2.41504 -0.96582 3.38086 -1.93164
c1.44824 -0.483398 2.41504 -1.44922 3.38086 -2.41504s1.44824 -1.93164 2.41504 -2.89746c0.96582 -0.966797 1.44824 -2.41504 1.93164 -3.38086c0.96582 -1.44922 0.96582 -2.41504 1.44922 -3.86426zM391.693 257.202
c2.41504 -3.38086 1.93164 -8.69434 -1.44922 -11.1084l-81.623 -64.7188c-1.93164 -1.44922 -5.3125 -1.93262 -7.72754 -0.966797l-101.425 42.0195l-104.806 -74.8613c-1.44922 -0.96582 -2.89746 -1.44922 -4.34668 -1.44922
c-2.41504 0 -4.83008 0.96582 -6.27832 3.38086c-2.41504 3.38086 -1.44922 8.21094 1.93164 10.626l108.187 77.2754c1.93164 1.44922 4.83008 1.93262 7.24414 0.96582l100.942 -42.0186l78.2422 62.3037c3.38086 2.41504 8.69336 1.93164 11.1084 -1.44824z
M504.709 -7.46875c4.34766 0 7.72852 -3.38086 7.24512 -7.72754c0 -4.34668 -3.38086 -7.72754 -7.72754 -7.72754h-43.4678h-70.9971h-41.5361h-70.998h-41.5352h-70.998h-42.502h-70.9971h-43.4678c-4.34668 0 -7.72754 3.38086 -7.72754 7.72754
s3.38086 7.72754 7.72754 7.72754h36.2236v112.533c0 4.34668 3.38086 7.72754 7.72754 7.72754h71.4805c4.34668 0 7.72754 -3.38086 7.72754 -7.72754v-112.533h26.0801v157.933c0 4.34668 3.38086 7.72754 7.72754 7.72754h70.998
c4.34668 0 7.72754 -3.38086 7.72754 -7.72754v-157.933h26.0801v146.342c0 4.34668 3.38086 7.72754 7.72754 7.72754h71.4805c4.34668 0 7.72754 -3.38086 7.72754 -7.72754v-146.342h26.0811v223.617c0 4.34668 3.38086 7.72754 7.72754 7.72754h70.9971
c4.34766 0 7.72852 -3.38086 7.72852 -7.72754v-223.617h35.7393zM114.948 -7.46875v104.806h-55.542v-104.806h55.542zM227.965 -7.46875v150.205h-55.543v-150.205h55.543zM340.498 -7.46875v138.614h-55.542v-138.614h55.542zM453.514 -7.46875v215.89h-55.542v-215.89
h55.542z" />
  </font>
</defs></svg>
